Drill report for wsgmodule_panel.kicad_pcb
Created on Wed Apr  3 19:06:11 2024

Copper Layer Stackup:
    =============================================================
    L1 :  F.Cu                      front
    L2 :  B.Cu                      back


Drill file 'wsgmodule_panel.drl' contains
    plated through holes:
    =============================================================
    T1  0.600mm  0.0236"  (80 holes)
    T2  2.200mm  0.0866"  (2 holes)
    T3  3.200mm  0.1260"  (4 holes)  (with 4 slots)

    Total plated holes count 86


Not plated through holes are merged with plated holes
    unplated through holes:
    =============================================================
    T4  5.000mm  0.1969"  (2 holes)

    Total unplated holes count 2
