Drill report for wsgmodule_panelCompsPCB.kicad_pcb
Created on Thu Apr  4 10:08:15 2024

Copper Layer Stackup:
    =============================================================
    L1 :  F.Cu                      front
    L2 :  B.Cu                      back


Drill file 'wsgmodule_panelCompsPCB.drl' contains
    plated through holes:
    =============================================================
    T1  0.400mm  0.0157"  (2 holes)
    T2  0.700mm  0.0276"  (1 hole)
    T3  0.800mm  0.0315"  (12 holes)
    T4  1.000mm  0.0394"  (20 holes)
    T5  1.300mm  0.0512"  (24 holes)
    T6  1.800mm  0.0709"  (32 holes)
    T7  2.100mm  0.0827"  (18 holes)

    Total plated holes count 109


Not plated through holes are merged with plated holes
    unplated through holes:
    =============================================================

    Total unplated holes count 0
