Drill report for wsgmodule_mainPCB.kicad_pcb
Created on Thu Apr  4 10:08:09 2024

Copper Layer Stackup:
    =============================================================
    L1 :  F.Cu                      front
    L2 :  B.Cu                      back


Drill file 'wsgmodule_mainPCB.drl' contains
    plated through holes:
    =============================================================
    T1  0.400mm  0.0157"  (10 holes)
    T2  0.700mm  0.0276"  (3 holes)
    T3  0.800mm  0.0315"  (116 holes)
    T4  0.900mm  0.0354"  (4 holes)
    T5  1.000mm  0.0394"  (43 holes)  (with 20 slots)
    T6  1.016mm  0.0400"  (10 holes)
    T7  1.100mm  0.0433"  (4 holes)

    Total plated holes count 190


Not plated through holes are merged with plated holes
    unplated through holes:
    =============================================================

    Total unplated holes count 0
